…
pups_df =  read_csv("./data/FAS_pups.csv", na = c("NA", "."))
pups_df = janitor::clean_names(pups_df)
names(pups_df) #"litter_number" "sex"    "pd_ears"  "pd_eyes"  "pd_pivot"  "pd_walk"  
```

## Select

``` r
select(litters_df, group, litter_number, gd0_weight, pups_born_alive)
```

    ## # A tibble: 49 × 4
    ##   group litter_number gd0_weight pups_born_alive
    ##   <chr> <chr>              <dbl>           <dbl>
    ## 1 Con7  #85                 19.7               3
    ## 2 Con7  #1/2/95/2           27                 8
    ## 3 Con7  #5/5/3/83/3-3       26                 6
    ## # ℹ 46 more rows

``` r
select(litters_df, group:gd_of_birth)
```

    ## # A tibble: 49 × 5
    ##   group litter_number gd0_weight gd18_weight gd_of_birth
    ##   <chr> <chr>              <dbl>       <dbl>       <dbl>
    ## 1 Con7  #85                 19.7        34.7          20
    ## 2 Con7  #1/2/95/2           27          42            19
    ## 3 Con7  #5/5/3/83/3-3       26          41.4          19
    ## # ℹ 46 more rows

``` r
select(litters_df, -pups_survive)
```

    ## # A tibble: 49 × 7
    ##   group litter_number gd0_weight gd18_weight gd_of_birth pups_born_alive
    ##   <chr> <chr>              <dbl>       <dbl>       <dbl>           <dbl>
    ## 1 Con7  #85                 19.7        34.7          20               3
    ## 2 Con7  #1/2/95/2           27          42            19               8
    ## 3 Con7  #5/5/3/83/3-3       26          41.4          19               6
    ## # ℹ 46 more rows
    ## # ℹ 1 more variable: pups_dead_birth <dbl>

``` r
select(litters_df, GROUP = group, LiTtEr_NuMbEr = litter_number) #OR
```

    ## # A tibble: 49 × 2
    ##   GROUP LiTtEr_NuMbEr
    ##   <chr> <chr>        
    ## 1 Con7  #85          
    ## 2 Con7  #1/2/95/2    
    ## 3 Con7  #5/5/3/83/3-3
    ## # ℹ 46 more rows

``` r
rename(litters_df, GROUP = group, LiTtEr_NuMbEr = litter_number)
```

    ## # A tibble: 49 × 8
    ##   GROUP LiTtEr_NuMbEr gd0_weight gd18_weight gd_of_birth pups_born_alive
    ##   <chr> <chr>              <dbl>       <dbl>       <dbl>           <dbl>
    ## 1 Con7  #85                 19.7        34.7          20               3
    ## 2 Con7  #1/2/95/2           27          42            19               8
    ## 3 Con7  #5/5/3/83/3-3       26          41.4          19               6
    ## # ℹ 46 more rows
    ## # ℹ 2 more variables: pups_dead_birth <dbl>, pups_survive <dbl>

``` r
select(litters_df, starts_with("gd"))
```

    ## # A tibble: 49 × 3
    ##   gd0_weight gd18_weight gd_of_birth
    ##        <dbl>       <dbl>       <dbl>
    ## 1       19.7        34.7          20
    ## 2       27          42            19
    ## 3       26          41.4          19
    ## # ℹ 46 more rows

``` r
select(litters_df, litter_number,pups_survive, everything()) #rearrange
```

    ## # A tibble: 49 × 8
    ##   litter_number pups_survive group gd0_weight gd18_weight gd_of_birth
    ##   <chr>                <dbl> <chr>      <dbl>       <dbl>       <dbl>
    ## 1 #85                      3 Con7        19.7        34.7          20
    ## 2 #1/2/95/2                7 Con7        27          42            19
    ## 3 #5/5/3/83/3-3            5 Con7        26          41.4          19
    ## # ℹ 46 more rows
    ## # ℹ 2 more variables: pups_born_alive <dbl>, pups_dead_birth <dbl>

``` r
relocate(litters_df, litter_number, pups_survive)
```

    ## # A tibble: 49 × 8
    ##   litter_number pups_survive group gd0_weight gd18_weight gd_of_birth
    ##   <chr>                <dbl> <chr>      <dbl>       <dbl>       <dbl>
    ## 1 #85                      3 Con7        19.7        34.7          20
    ## 2 #1/2/95/2                7 Con7        27          42            19
    ## 3 #5/5/3/83/3-3            5 Con7        26          41.4          19
    ## # ℹ 46 more rows
    ## # ℹ 2 more variables: pups_born_alive <dbl>, pups_dead_birth <dbl>

*Learning Assessment:* In the pups data, select the columns containing
litter number, sex, and PD ears.

``` r
#names(pups_df)
select(pups_df, litter_number, sex, pd_ears)
```

    ## # A tibble: 313 × 3
    ##   litter_number   sex pd_ears
    ##   <chr>         <dbl>   <dbl>
    ## 1 #85               1       4
    ## 2 #85               1       4
    ## 3 #1/2/95/2         1       5
    ## # ℹ 310 more rows

# Filter

``` r
filter(litters_df, gd_of_birth == 20)
```

    ## # A tibble: 32 × 8
    ##   group litter_number gd0_weight gd18_weight gd_of_birth pups_born_alive
    ##   <chr> <chr>              <dbl>       <dbl>       <dbl>           <dbl>
    ## 1 Con7  #85                 19.7        34.7          20               3
    ## 2 Con7  #4/2/95/3-3         NA          NA            20               6
    ## 3 Con7  #2/2/95/3-2         NA          NA            20               6
    ## # ℹ 29 more rows
    ## # ℹ 2 more variables: pups_dead_birth <dbl>, pups_survive <dbl>
…
``` r
drop_na(litters_df) #will remove any row with a missing value
```

    ## # A tibble: 31 × 8
    ##   group litter_number gd0_weight gd18_weight gd_of_birth pups_born_alive
    ##   <chr> <chr>              <dbl>       <dbl>       <dbl>           <dbl>
    ## 1 Con7  #85                 19.7        34.7          20               3
    ## 2 Con7  #1/2/95/2           27          42            19               8
    ## 3 Con7  #5/5/3/83/3-3       26          41.4          19               6
    ## # ℹ 28 more rows
    ## # ℹ 2 more variables: pups_dead_birth <dbl>, pups_survive <dbl>

``` r
drop_na(litters_df, gd0_weight) #will remove rows for which gd0_weight is missing.
```

    ## # A tibble: 34 × 8
    ##   group litter_number gd0_weight gd18_weight gd_of_birth pups_born_alive
    ##   <chr> <chr>              <dbl>       <dbl>       <dbl>           <dbl>
    ## 1 Con7  #85                 19.7        34.7          20               3
    ## 2 Con7  #1/2/95/2           27          42            19               8
    ## 3 Con7  #5/5/3/83/3-3       26          41.4          19               6
    ## # ℹ 31 more rows
    ## # ℹ 2 more variables: pups_dead_birth <dbl>, pups_survive <dbl>

*Learning Assessment:* In the pups data:

- Filter to include only pups with sex 1
- Filter to include only pups with PD walk less than 11 and sex 2

``` r
#names(pups_df)

filter(pups_df, sex == 1)
```

    ## # A tibble: 155 × 6
    ##   litter_number   sex pd_ears pd_eyes pd_pivot pd_walk
    ##   <chr>         <dbl>   <dbl>   <dbl>    <dbl>   <dbl>
    ## 1 #85               1       4      13        7      11
    ## 2 #85               1       4      13        7      12
    ## 3 #1/2/95/2         1       5      13        7       9
    ## # ℹ 152 more rows

``` r
filter(pups_df, pd_walk<11, sex == 2)
```

    ## # A tibble: 127 × 6
    ##   litter_number   sex pd_ears pd_eyes pd_pivot pd_walk
    ##   <chr>         <dbl>   <dbl>   <dbl>    <dbl>   <dbl>
    ## 1 #1/2/95/2         2       4      13        7       9
    ## 2 #1/2/95/2         2       4      13        7      10
    ## 3 #1/2/95/2         2       5      13        8      10
    ## # ℹ 124 more rows

## Mutate

``` r
#names(litters_df)
mutate(litters_df,
  wt_gain = gd18_weight - gd0_weight,
  group = str_to_lower(group)
)
```

    ## # A tibble: 49 × 9
    ##   group litter_number gd0_weight gd18_weight gd_of_birth pups_born_alive
    ##   <chr> <chr>              <dbl>       <dbl>       <dbl>           <dbl>
    ## 1 con7  #85                 19.7        34.7          20               3
    ## 2 con7  #1/2/95/2           27          42            19               8
    ## 3 con7  #5/5/3/83/3-3       26          41.4          19               6
    ## # ℹ 46 more rows
    ## # ℹ 3 more variables: pups_dead_birth <dbl>, pups_survive <dbl>, wt_gain <dbl>

*Learning Assessment:* In the pups data:

- Create a variable that subtracts 7 from PD pivot
- Create a variable that is the sum of all the PD variables

``` r
#names(pups_df)
mutate(pups_df,
       pd_pivot_subtract = pd_pivot - 7,
       sum_pd = pd_ears + pd_eyes + pd_pivot + pd_walk
       )
```

    ## # A tibble: 313 × 8
    ##   litter_number   sex pd_ears pd_eyes pd_pivot pd_walk pd_pivot_subtract sum_pd
    ##   <chr>         <dbl>   <dbl>   <dbl>    <dbl>   <dbl>             <dbl>  <dbl>
    ## 1 #85               1       4      13        7      11                 0     35
    ## 2 #85               1       4      13        7      12                 0     36
    ## 3 #1/2/95/2         1       5      13        7       9                 0     34
    ## # ℹ 310 more rows
…
pups_df
```

    ## # A tibble: 155 × 6
    ##   litter_number   sex pd_eyes pd_pivot pd_walk pd_pivot_gt7
    ##   <chr>         <dbl>   <dbl>    <dbl>   <dbl> <lgl>       
    ## 1 #85               1      13        7      11 FALSE       
    ## 2 #85               1      13        7      12 FALSE       
    ## 3 #1/2/95/2         1      13        7       9 FALSE       
    ## # ℹ 152 more rows
